uart_out.vcd

$date
    No Date.
$end
$version
    txt2vcd V1.0
$end
$comment
    Any comment text.
$end
$timescale 1ps $end
$scope module logic $end

$var wire 1 ! clk $end
$var wire 8 " probe_0 $end
$var wire 8 # probe_1 $end
$var wire 8 $ probe_2 $end
$var wire 8 % probe_3 $end
$var wire 8 & probe_4 $end
$var wire 8 ' probe_5 $end
$var wire 8 ( probe_6 $end
$var wire 8 ) probe_7 $end
$var wire 8 * probe_8 $end
$var wire 8 + probe_9 $end
$var wire 8 , probe_10 $end
$var wire 8 - probe_11 $end
$var wire 8 . probe_12 $end
$var wire 8 / probe_13 $end
$var wire 8 0 probe_14 $end
$var wire 8 1 probe_15 $end
$var wire 8 2 probe_16 $end
$var wire 8 3 probe_17 $end
$var wire 8 4 probe_18 $end
$var wire 8 5 probe_19 $end
$var wire 8 6 probe_20 $end
$var wire 8 7 probe_21 $end
$var wire 8 8 probe_22 $end
$var wire 8 9 probe_23 $end
$var wire 8 : probe_24 $end
$var wire 8 ; probe_25 $end
$var wire 8 < probe_26 $end
$var wire 8 = probe_27 $end
$var wire 8 > probe_28 $end
$var wire 8 ? probe_29 $end
$var wire 8 @ probe_30 $end
$var wire 8 A probe_31 $end
$upscope $end
$enddefinitions $end
$dumpvars
b0 !
b00000000 "
b00000000 #
b00000000 $
b00000000 %
b00000000 &
b00000000 '
b00000000 (
b00000000 )
b00000000 *
b00000000 +
b00000000 ,
b00000000 -
b00000000 .
b00000000 /
b00000000 0
b00000000 1
b00000000 2
b00000000 3
b00000000 4
b00000000 5
b00000000 6
b00000000 7
b00000000 8
b00000000 9
b00000000 :
b00000000 ;
b00000000 <
b00000000 =
b00000000 >
b00000000 ?
b00000000 @
b00000000 A
$end
#0
b1 !
b00000000 "
b00000000 #
b00000000 $
b00000000 %
b00000000 &
b00000000 '
b00000000 (
b00000000 )
b00000000 *
b00000000 +
b00000000 ,
b00000000 -
b00000000 .
b00000000 /
b00000000 0
b00000000 1
b00000000 2
b00000000 3
b00000000 4
b00000000 5
b00000000 6
b00000000 7
b11111100 8
b10010110 9
b00110000 :
b11001010 ;
b01100100 <
b11111110 =
b10011000 >
b00110010 ?
b11001100 @
b01100110 A
#4000
b0 !
#8000
b1 !
b00000000 "
b00000000 #
b00000000 $
b00000000 %
b00000000 &
b00000000 '
b00000000 (
b00000000 )
b00000000 *
b00000000 +
b00000000 ,
b00000000 -
b00000000 .
b00000000 /
b00000000 0
b00000000 1
b00000000 2
b00000000 3
b00000000 4
b00000000 5
b00000000 6
b00000000 7
b00000110 8
b10011111 9
b00111000 :
b11010001 ;
b01101010 <
b00000011 =
b10011100 >
b00110101 ?
b11001110 @
b01100111 A
#12000
b0 !
#16000
b1 !
b00000000 "
b00000000 #
b00000000 $
b00000000 %
b00000000 &
b00000000 '
b00000000 (
b00000000 )
b00000000 *
b00000000 +
b00000000 ,
b00000000 -
b00000000 .
b00000000 /
b00000000 0
b00000000 1
b00000000 2
b00000000 3
b00000000 4
b00000000 5
b00000000 6
b00000000 7
b00010000 8
b10101000 9
b01000000 :
b11011000 ;
b01110000 <
b00001000 =
b10100000 >
b00111000 ?
b11010000 @
b01101000 A
#20000
b0 !
#24000
b1 !
b00000000 "
b00000000 #
b00000000 $
b00000000 %
b00000000 &
b00000000 '
b00000000 (
b00000000 )
b00000000 *
b00000000 +
b00000000 ,
b00000000 -
b00000000 .
b00000000 /
b00000000 0
b00000000 1
b00000000 2
b00000000 3
b00000000 4
b00000000 5
b00000000 6
b00000000 7
b00011010 8
b10110001 9
b01001000 :
b11011111 ;
b01110110 <
b00001101 =
b10100100 >
b00111011 ?
b11010010 @
b01101001 A
#28000
b0 !
#32000
b1 !
b00000000 "
b00000000 #
b00000000 $
b00000000 %
b00000000 &
b00000000 '
b00000000 (
b00000000 )
b00000000 *
b00000000 +
b00000000 ,
b00000000 -
b00000000 .
b00000000 /
b00000000 0
b00000000 1
b00000000 2
b00000000 3
b00000000 4
b00000000 5
b00000000 6
b00000000 7
b00100100 8
b10111010 9
b01010000 :
b11100110 ;
b01111100 <
b00010010 =
b10101000 >
b00111110 ?
b11010100 @
b01101010 A
#36000
b0 !
#40000
b1 !
b00000000 "
b00000000 #
b00000000 $
b00000000 %
b00000000 &
b00000000 '
b00000000 (
b00000000 )
b00000000 *
b00000000 +
b00000000 ,
b00000000 -
b00000000 .
b00000000 /
b00000000 0
b00000000 1
b00000000 2
b00000000 3
b00000000 4
b00000000 5
b00000000 6
b00000000 7
b00101110 8
b11000011 9
b01011000 :
b11101101 ;
b10000010 <
b00010111 =
b10101100 >
b01000001 ?
b11010110 @
b01101011 A
#44000
b0 !
#48000
b1 !
b00000000 "
b00000000 #
b00000000 $
b00000000 %
b00000000 &
b00000000 '
b00000000 (
b00000000 )
b00000000 *
b00000000 +
b00000000 ,
b00000000 -
b00000000 .
b00000000 /
b00000000 0
b00000000 1
b00000000 2
b00000000 3
b00000000 4
b00000000 5
b00000000 6
b00000000 7
b00111000 8
b11001100 9
b01100000 :
b11110100 ;
b10001000 <
b00011100 =
b10110000 >
b01000100 ?
b11011000 @
b01101100 A
#52000
b0 !
#56000
b1 !
b00000000 "
b00000000 #
b00000000 $
b00000000 %
b00000000 &
b00000000 '
b00000000 (
b00000000 )
b00000000 *
b00000000 +
b00000000 ,
b00000000 -
b00000000 .
b00000000 /
b00000000 0
b00000000 1
b00000000 2
b00000000 3
b00000000 4
b00000000 5
b00000000 6
b00000000 7
b01000010 8
b11010101 9
b01101000 :
b11111011 ;
b10001110 <
b00100001 =
b10110100 >
b01000111 ?
b11011010 @
b01101101 A
#60000
b0 !
#64000
b1 !
b00000000 "
b00000000 #
b00000000 $
b00000000 %
b00000000 &
b00000000 '
b00000000 (
b00000000 )
b00000000 *
b00000000 +
b00000000 ,
b00000000 -
b00000000 .
b00000000 /
b00000000 0
b00000000 1
b00000000 2
b00000000 3
b00000000 4
b00000000 5
b00000000 6
b00000000 7
b01001100 8
b11011110 9
b01110000 :
b00000010 ;
b10010100 <
b00100110 =
b10111000 >
b01001010 ?
b11011100 @
b01101110 A
#68000
b0 !
#72000
b1 !
b00000000 "
b00000000 #
b00000000 $
b00000000 %
b00000000 &
b00000000 '
b00000000 (
b00000000 )
b00000000 *
b00000000 +
b00000000 ,
b00000000 -
b00000000 .
b00000000 /
b00000000 0
b00000000 1
b00000000 2
b00000000 3
b00000000 4
b00000000 5
b00000000 6
b00000000 7
b01010110 8
b11100111 9
b01111000 :
b00001001 ;
b10011010 <
b00101011 =
b10111100 >
b01001101 ?
b11011110 @
b01101111 A
#76000
b0 !
#80000
b1 !
b00000000 "
b00000000 #
b00000000 $
b00000000 %
b00000000 &
b00000000 '
b00000000 (
b00000000 )
b00000000 *
b00000000 +
b00000000 ,
b00000000 -
b00000000 .
b00000000 /
b00000000 0
b00000000 1
b00000000 2
b00000000 3
b00000000 4
b00000000 5
b00000000 6
b00000000 7
b01100000 8
b11110000 9
b10000000 :
b00010000 ;
b10100000 <
b00110000 =
b11000000 >
b01010000 ?
b11100000 @
b01110000 A
#84000
b0 !
#88000
b1 !
b00000000 "
b00000000 #
b00000000 $
b00000000 %
b00000000 &
b00000000 '
b00000000 (
b00000000 )
b00000000 *
b00000000 +
b00000000 ,
b00000000 -
b00000000 .
b00000000 /
b00000000 0
b00000000 1
b00000000 2
b00000000 3
b00000000 4
b00000000 5
b00000000 6
b00000000 7
b01101010 8
b11111001 9
b10001000 :
b00010111 ;
b10100110 <
b00110101 =
b11000100 >
b01010011 ?
b11100010 @
b01110001 A
#92000
b0 !
#96000
b1 !
b00000000 "
b00000000 #
b00000000 $
b00000000 %
b00000000 &
b00000000 '
b00000000 (
b00000000 )
b00000000 *
b00000000 +
b00000000 ,
b00000000 -
b00000000 .
b00000000 /
b00000000 0
b00000000 1
b00000000 2
b00000000 3
b00000000 4
b00000000 5
b00000000 6
b00000000 7
b01110100 8
b00000010 9
b10010000 :
b00011110 ;
b10101100 <
b00111010 =
b11001000 >
b01010110 ?
b11100100 @
b01110010 A
#100000
b0 !
#104000
b1 !
b00000000 "
b00000000 #
b00000000 $
b00000000 %
b00000000 &
b00000000 '
b00000000 (
b00000000 )
b00000000 *
b00000000 +
b00000000 ,
b00000000 -
b00000000 .
b00000000 /
b00000000 0
b00000000 1
b00000000 2
b00000000 3
b00000000 4
b00000000 5
b00000000 6
b00000000 7
b01111110 8
b00001011 9
b10011000 :
b00100101 ;
b10110010 <
b00111111 =
b11001100 >
b01011001 ?
b11100110 @
b01110011 A
#108000
b0 !
#112000
b1 !
b00000000 "
b00000000 #
b00000000 $
b00000000 %
b00000000 &
b00000000 '
b00000000 (
b00000000 )
b00000000 *
b00000000 +
b00000000 ,
b00000000 -
b00000000 .
b00000000 /
b00000000 0
b00000000 1
b00000000 2
b00000000 3
b00000000 4
b00000000 5
b00000000 6
b00000000 7
b10001000 8
b00010100 9
b10100000 :
b00101100 ;
b10111000 <
b01000100 =
b11010000 >
b01011100 ?
b11101000 @
b01110100 A
#116000
b0 !
#120000
b1 !
b00000000 "
b00000000 #
b00000000 $
b00000000 %
b00000000 &
b00000000 '
b00000000 (
b00000000 )
b00000000 *
b00000000 +
b00000000 ,
b00000000 -
b00000000 .
b00000000 /
b00000000 0
b00000000 1
b00000000 2
b00000000 3
b00000000 4
b00000000 5
b00000000 6
b00000000 7
b10010010 8
b00011101 9
b10101000 :
b00110011 ;
b10111110 <
b01001001 =
b11010100 >
b01011111 ?
b11101010 @
b01110101 A
#124000
b0 !
#128000
b1 !
b00000000 "
b00000000 #
b00000000 $
b00000000 %
b00000000 &
b00000000 '
b00000000 (
b00000000 )
b00000000 *
b00000000 +
b00000000 ,
b00000000 -
b00000000 .
b00000000 /
b00000000 0
b00000000 1
b00000000 2
b00000000 3
b00000000 4
b00000000 5
b00000000 6
b00000000 7
b10011100 8
b00100110 9
b10110000 :
b00111010 ;
b11000100 <
b01001110 =
b11011000 >
b01100010 ?
b11101100 @
b01110110 A
#132000
b0 !
#136000
b1 !
b00000000 "
b00000000 #
b00000000 $
b00000000 %
b00000000 &
b00000000 '
b00000000 (
b00000000 )
b00000000 *
b00000000 +
b00000000 ,
b00000000 -
b00000000 .
b00000000 /
b00000000 0
b00000000 1
b00000000 2
b00000000 3
b00000000 4
b00000000 5
b00000000 6
b00000000 7
b10100110 8
b00101111 9
b10111000 :
b01000001 ;
b11001010 <
b01010011 =
b11011100 >
b01100101 ?
b11101110 @
b01110111 A
#140000
b0 !
